[
    { "itemId" : "1", "type":"server file"},
    { "itemId" : "2", "type":"service"},
    { "itemId" : "3", "type":"image"},
    { "itemId" : "4", "type":"database"},
    { "itemId" : "5", "type":"js"},
    { "itemId" : "6", "type":"json"},
    { "itemId" : "7", "type":"some other file type"}
]